<svg xmlns="http://www.w3.org/2000/svg" width="16.784" height="33.567" viewBox="0 0 16.784 33.567">
  <g id="facebook" transform="translate(-300.182 0.636)">
    <g id="Grupo_86" data-name="Grupo 86" transform="translate(128)">
      <path id="Caminho_119" data-name="Caminho 119" d="M138.49,11.539v-4.2a2.1,2.1,0,0,1,2.1-2.1h2.1V0h-4.2A6.293,6.293,0,0,0,132.2,6.294v5.245H128v5.245h4.2V33.567h6.294V16.784h4.2l2.1-5.245Z" transform="translate(44.182 -0.636)" fill="#383838"/>
    </g>
  </g>
</svg>
